…
Finally, we create a tibble with all the countries of the same length as the user-inputted one, and compare how many letters match.

``` r
(how_many_letters <- tibble(Country = separate_country_letters, `Matches length?` = check_same_length) %>% 
  filter(check_same_length == TRUE) )
```

    ## # A tibble: 22 x 2
    ##    Country   `Matches length?`
    ##    <list>    <lgl>            
    ##  1 <chr [6]> TRUE             
    ##  2 <chr [6]> TRUE             
    ##  3 <chr [6]> TRUE             
    ##  4 <chr [6]> TRUE             
    ##  5 <chr [6]> TRUE             
    ##  6 <chr [6]> TRUE             
    ##  7 <chr [6]> TRUE             
    ##  8 <chr [6]> TRUE             
    ##  9 <chr [6]> TRUE             
    ## 10 <chr [6]> TRUE             
    ## # ... with 12 more rows
…
